--------------------------------Try 001 ----------------------------------------------------------------------------------------------------------------------
ssh -i "C:\Users\Ashwini\Downloads\dumm.pem" ubuntu@15.206.89.101

sudo apt-get update

sudo apt-get install mysql-server unzip vim python3-pip -y

sudo mysql

ALTER USER 'root'@'localhost' IDENTIFIED WITH mysql_native_password BY 'root';

FLUSH PRIVILEGES;

exit

mysql -u root -p
(Enter password: root)

tar cvf app.tar app

scp -i dumm.pem app.tar ubuntu@15.206.89.101:~/

tar xvf app.tar

sudo pip install keras
pip install --no-cache-dir tensorflow
sudo pip install numpy
sudo pip3 install flask
sudo pip install pillow
-------------------------------------------------------------------------------------------------------------------------------------------------------------------

ssh -i  "C:\Users\Ashwini\Desktop\Project\new_1.pem" ubuntu@13.235.128.213


sudo apt-get update

sudo apt-get install mysql-server unzip vim python3-pip -y

sudo mysql

ALTER USER 'root'@'localhost' IDENTIFIED WITH mysql_native_password BY 'root';

FLUSH PRIVILEGES;

exit

mysql -u root -p
(Enter password: root)

tar cvf app.tar app

scp -i new_1.pem app.tar ubuntu@13.235.128.213:~/

tar xvf app.tar

sudo pip install keras
pip install --no-cache-dir tensorflow
sudo pip install numpy
sudo pip3 install flask
sudo pip install pillow




url : http://13.235.128.213:4000